Key  Process     PDF                    ecm(GeV)  GridType  C1(muR)  C2(muF)  C3       qMin     qMax     qTMin    qTMax    yMin     yMax     
0    DrellYan    CT14nnlo_0             8000.00   w321      1.00     1.00     1.00     91.00    91.00    0.10     600.00   0.00     0.00     
1    DrellYan    CT14nnlo_0             8000.00   asym1     1.00     1.00     0.00     91.19    91.19    0.10     16.00    -6.00    6.00     
2    DrellYan    CT14nnlo_0             8000.00   asym2     1.00     1.00     0.00     91.19    91.19    0.10     16.00    -6.00    6.00     
3    DrellYan    CT14nnlo_0             8000.00   asym3     1.00     1.00     0.00     91.19    91.19    0.10     16.00    -6.00    6.00     
5    DrellYan    CT14nnlo_0             8000.00   w332      1.00     1.00     1.00     91.00    91.00    0.10     600.00   0.00     0.00     
6    DrellYan    CT14nnlo_0             8000.00   w210      1.00     1.00     1.00     91.00    91.00    0.10     600.00   0.00     0.00     
7    DrellYan    CT14nnlo_0             8000.00   w100      1.00     1.00     1.00     91.00    91.00    0.10     600.00   0.00     0.00     
8    DrellYan    CT14nnlo_0             8000.00   w432      1.00     1.00     1.00     91.00    91.00    0.10     600.00   0.00     0.00     
9    DrellYan    CT14nnlo_0             8000.00   w321      1.00     1.00     1.00     91.18    91.18    4.00     4.00     0.00     0.00     
10   DrellYan    CT14nnlo_0             8000.00   w3211     1.00     1.00     1.00     91.18    91.18    4.00     4.00     0.00     0.00     
11   DrellYan    MSTW2008nnlo68cl_0     8000.00   asym3     1.00     1.00     0.00     91.18    91.18    4.00     4.00     0.00     0.00     
12   DrellYan    MSTW2008nnlo68cl_0     8000.00   asym1     1.00     1.00     0.00     91.18    91.18    0.10     20.00    0.00     0.00     
13   DrellYan    MSTW2008nnlo68cl_0     8000.00   asym2     1.00     1.00     0.00     91.18    91.18    0.10     20.00    0.00     0.00     
14   DrellYan    MSTW2008nnlo68cl_0     8000.00   asym1     1.00     1.00     0.00     91.18    91.18    0.10     20.00    -5.00    5.00     
15   DrellYan    MSTW2008nnlo68cl_0     8000.00   asym2     1.00     1.00     0.00     91.18    91.18    0.10     20.00    -5.00    5.00     
16   DrellYan    MSTW2008nnlo68cl_0     8000.00   asym3     1.00     1.00     0.00     91.18    91.18    0.10     20.00    -5.00    5.00     
17   DrellYan    CT14nnlo_0             8000.00   w321      1.00     1.00     1.00     66.00    116.00   0.10     600.00   -5.00    5.00     
18   DrellYan    CT14nnlo_0             8000.00   asym1     1.00     1.00     0.00     66.00    116.00   0.10     600.00   -5.00    5.00     
