Process:            DrellYan
PDF:                CT14nnlo
iSet:               0
ECM:                8000.00000
GridType:           Resum
Scheme:             CSS
A Order:            3
B Order:            2
C Order:            1
C1, C2, C3:         1.12292, 1.00000, 1.12292
Q Min/Max:          91.00000, 91.00000
Qt Min/Max:         0.00000, 600.00000
y Min/Max:          0.00000, 0.00000
----------------------------------
Q              Qt             y              Resum0           Resum1           Resum2           Resum3           
9.10000000e+01 9.04398451e-02 0.00000000e+00 6.60332214e+01   0.00000000e+00   1.80079218e+01   0.00000000e+00   
9.10000000e+01 9.99514866e-02 0.00000000e+00 3.64858366e+01   0.00000000e+00   3.98011901e+01   0.00000000e+00   
9.10000000e+01 1.10463476e-01 0.00000000e+00 4.03159313e+01   0.00000000e+00   4.39799089e+01   0.00000000e+00   
9.10000000e+01 1.22081021e-01 0.00000000e+00 4.45495174e+01   0.00000000e+00   4.85982621e+01   0.00000000e+00   
9.10000000e+01 1.34920395e-01 0.00000000e+00 9.84472045e+01   0.00000000e+00   1.07395936e+02   0.00000000e+00   
9.10000000e+01 1.49110096e-01 0.00000000e+00 1.08769375e+02   0.00000000e+00   1.18658566e+02   0.00000000e+00   
9.10000000e+01 1.64792142e-01 0.00000000e+00 1.20165515e+02   0.00000000e+00   1.31093218e+02   0.00000000e+00   
9.10000000e+01 1.82123483e-01 0.00000000e+00 1.32760300e+02   0.00000000e+00   1.44836078e+02   0.00000000e+00   
9.10000000e+01 2.01277577e-01 0.00000000e+00 1.46653461e+02   0.00000000e+00   1.59996983e+02   0.00000000e+00   
9.10000000e+01 2.22446124e-01 0.00000000e+00 1.61987359e+02   0.00000000e+00   1.76731698e+02   0.00000000e+00   
9.10000000e+01 2.45840987e-01 0.00000000e+00 1.78899028e+02   0.00000000e+00   1.95190513e+02   0.00000000e+00   
9.10000000e+01 2.71696310e-01 0.00000000e+00 1.97537417e+02   0.00000000e+00   2.15536748e+02   0.00000000e+00   
9.10000000e+01 3.00270860e-01 0.00000000e+00 2.18089411e+02   0.00000000e+00   2.37975123e+02   0.00000000e+00   
9.10000000e+01 3.31850622e-01 0.00000000e+00 2.40719045e+02   0.00000000e+00   2.62685547e+02   0.00000000e+00   
9.10000000e+01 3.66751657e-01 0.00000000e+00 2.65639468e+02   0.00000000e+00   2.89906181e+02   0.00000000e+00   
9.10000000e+01 4.05323265e-01 0.00000000e+00 2.93019427e+02   0.00000000e+00   3.19821519e+02   0.00000000e+00   
9.10000000e+01 4.47951485e-01 0.00000000e+00 3.23079649e+02   0.00000000e+00   3.52662884e+02   0.00000000e+00   
9.10000000e+01 4.95062954e-01 0.00000000e+00 3.56061683e+02   0.00000000e+00   3.88739488e+02   0.00000000e+00   
9.10000000e+01 5.47129179e-01 0.00000000e+00 3.92162569e+02   0.00000000e+00   4.28232038e+02   0.00000000e+00   
9.10000000e+01 6.04671257e-01 0.00000000e+00 4.31621682e+02   0.00000000e+00   4.71427656e+02   0.00000000e+00   
9.10000000e+01 6.68265089e-01 0.00000000e+00 4.74619762e+02   0.00000000e+00   5.18531285e+02   0.00000000e+00   
9.10000000e+01 7.38547142e-01 0.00000000e+00 5.21355884e+02   0.00000000e+00   5.69777154e+02   0.00000000e+00   
9.10000000e+01 8.16220823e-01 0.00000000e+00 5.71934360e+02   0.00000000e+00   6.25316262e+02   0.00000000e+00   
9.10000000e+01 9.02063516e-01 0.00000000e+00 6.26417871e+02   0.00000000e+00   6.85181952e+02   0.00000000e+00   
9.10000000e+01 9.96934364e-01 0.00000000e+00 6.84867164e+02   0.00000000e+00   7.49525132e+02   0.00000000e+00   
9.10000000e+01 1.10178287e+00 0.00000000e+00 7.47101395e+02   0.00000000e+00   8.18163570e+02   0.00000000e+00   
9.10000000e+01 1.21765838e+00 0.00000000e+00 8.12860744e+02   0.00000000e+00   8.90850132e+02   0.00000000e+00   
9.10000000e+01 1.34572063e+00 0.00000000e+00 8.81703053e+02   0.00000000e+00   9.67140175e+02   0.00000000e+00   
9.10000000e+01 1.48725131e+00 0.00000000e+00 9.52965567e+02   0.00000000e+00   1.04630748e+03   0.00000000e+00   
9.10000000e+01 1.64366689e+00 0.00000000e+00 1.02557335e+03   0.00000000e+00   1.12733095e+03   0.00000000e+00   
9.10000000e+01 1.81653285e+00 0.00000000e+00 1.09852927e+03   0.00000000e+00   1.20901765e+03   0.00000000e+00   
9.10000000e+01 2.00757927e+00 0.00000000e+00 1.17029421e+03   0.00000000e+00   1.28972057e+03   0.00000000e+00   
9.10000000e+01 2.21871823e+00 0.00000000e+00 1.23919488e+03   0.00000000e+00   1.36757365e+03   0.00000000e+00   
9.10000000e+01 2.45206286e+00 0.00000000e+00 1.30330711e+03   0.00000000e+00   1.44039913e+03   0.00000000e+00   
9.10000000e+01 2.70994857e+00 0.00000000e+00 1.36061257e+03   0.00000000e+00   1.50587460e+03   0.00000000e+00   
9.10000000e+01 2.99495634e+00 0.00000000e+00 1.40914457e+03   0.00000000e+00   1.56170759e+03   0.00000000e+00   
9.10000000e+01 3.30993865e+00 0.00000000e+00 1.44699261e+03   0.00000000e+00   1.60566228e+03   0.00000000e+00   
9.10000000e+01 3.65804794e+00 0.00000000e+00 1.47243324e+03   0.00000000e+00   1.63572136e+03   0.00000000e+00   
9.10000000e+01 4.04276820e+00 0.00000000e+00 1.48423043e+03   0.00000000e+00   1.65045453e+03   0.00000000e+00   
9.10000000e+01 4.46794984e+00 0.00000000e+00 1.48143501e+03   0.00000000e+00   1.64880850e+03   0.00000000e+00   
9.10000000e+01 4.93784823e+00 0.00000000e+00 1.46380587e+03   0.00000000e+00   1.63056983e+03   0.00000000e+00   
9.10000000e+01 5.45716626e+00 0.00000000e+00 1.43166332e+03   0.00000000e+00   1.59619541e+03   0.00000000e+00   
9.10000000e+01 6.03110145e+00 0.00000000e+00 1.38593975e+03   0.00000000e+00   1.54684068e+03   0.00000000e+00   
9.10000000e+01 6.66539792e+00 0.00000000e+00 1.32802358e+03   0.00000000e+00   1.48416410e+03   0.00000000e+00   
9.10000000e+01 7.36640394e+00 0.00000000e+00 1.25979735e+03   0.00000000e+00   1.41033770e+03   0.00000000e+00   
9.10000000e+01 8.14113541e+00 0.00000000e+00 1.18343339e+03   0.00000000e+00   1.32780587e+03   0.00000000e+00   
9.10000000e+01 8.99734609e+00 0.00000000e+00 1.10127598e+03   0.00000000e+00   1.23913332e+03   0.00000000e+00   
9.10000000e+01 9.94360524e+00 0.00000000e+00 1.01579694e+03   0.00000000e+00   1.14696984e+03   0.00000000e+00   
9.10000000e+01 1.09893833e+01 0.00000000e+00 9.29150790e+02   0.00000000e+00   1.05356793e+03   0.00000000e+00   
9.10000000e+01 1.21451469e+01 0.00000000e+00 8.43077424e+02   0.00000000e+00   9.60650491e+02   0.00000000e+00   
9.10000000e+01 1.34224631e+01 0.00000000e+00 7.58727557e+02   0.00000000e+00   8.69360404e+02   0.00000000e+00   
9.10000000e+01 1.48341159e+01 0.00000000e+00 6.77419543e+02   0.00000000e+00   7.80860700e+02   0.00000000e+00   
9.10000000e+01 1.63942335e+01 0.00000000e+00 6.00606163e+02   0.00000000e+00   6.96481922e+02   0.00000000e+00   
9.10000000e+01 1.81184301e+01 0.00000000e+00 5.29008611e+02   0.00000000e+00   6.16925688e+02   0.00000000e+00   
9.10000000e+01 2.00239620e+01 0.00000000e+00 4.62324721e+02   0.00000000e+00   5.41931744e+02   0.00000000e+00   
9.10000000e+01 2.21299004e+01 0.00000000e+00 4.00805027e+02   0.00000000e+00   4.71869496e+02   0.00000000e+00   
9.10000000e+01 2.44573224e+01 0.00000000e+00 3.44825086e+02   0.00000000e+00   4.07398732e+02   0.00000000e+00   
9.10000000e+01 2.70295214e+01 0.00000000e+00 2.93354678e+02   0.00000000e+00   3.47880963e+02   0.00000000e+00   
9.10000000e+01 2.98722410e+01 0.00000000e+00 2.46675747e+02   0.00000000e+00   2.93998446e+02   0.00000000e+00   
9.10000000e+01 3.30139320e+01 0.00000000e+00 2.04199165e+02   0.00000000e+00   2.45321959e+02   0.00000000e+00   
9.10000000e+01 3.64860376e+01 0.00000000e+00 1.66424977e+02   0.00000000e+00   2.02161415e+02   0.00000000e+00   
9.10000000e+01 4.03233076e+01 0.00000000e+00 1.33330406e+02   0.00000000e+00   1.64071946e+02   0.00000000e+00   
9.10000000e+01 4.45641469e+01 0.00000000e+00 1.05315418e+02   0.00000000e+00   1.31068895e+02   0.00000000e+00   
9.10000000e+01 4.92509992e+01 0.00000000e+00 8.17420896e+01   0.00000000e+00   1.02626437e+02   0.00000000e+00   
9.10000000e+01 5.44307720e+01 0.00000000e+00 6.14819626e+01   0.00000000e+00   7.82255444e+01   0.00000000e+00   
9.10000000e+01 6.01553062e+01 0.00000000e+00 4.35709370e+01   0.00000000e+00   5.72064075e+01   0.00000000e+00   
9.10000000e+01 6.64818950e+01 0.00000000e+00 2.83249141e+01   0.00000000e+00   3.93676582e+01   0.00000000e+00   
9.10000000e+01 7.34738570e+01 0.00000000e+00 1.64380844e+01   0.00000000e+00   2.48424188e+01   0.00000000e+00   
9.10000000e+01 8.12011699e+01 0.00000000e+00 7.00811023e+00   0.00000000e+00   1.30762465e+01   0.00000000e+00   
9.10000000e+01 8.97411715e+01 0.00000000e+00 -1.33434685e+00  0.00000000e+00   2.93100224e+00   0.00000000e+00   
9.10000000e+01 9.91793329e+01 0.00000000e+00 -7.64914586e+00  0.00000000e+00   -4.87483416e+00  0.00000000e+00   
9.10000000e+01 1.09610114e+02 0.00000000e+00 -1.20785855e+01  0.00000000e+00   -1.04425895e+01  0.00000000e+00   
9.10000000e+01 1.21137911e+02 0.00000000e+00 -1.60519377e+01  0.00000000e+00   -1.56385203e+01  0.00000000e+00   
9.10000000e+01 1.33878096e+02 0.00000000e+00 -1.82890935e+01  0.00000000e+00   -1.85480286e+01  0.00000000e+00   
9.10000000e+01 1.47958178e+02 0.00000000e+00 -2.01889610e+01  0.00000000e+00   -2.11529827e+01  0.00000000e+00   
9.10000000e+01 1.63519076e+02 0.00000000e+00 -2.10486945e+01  0.00000000e+00   -2.24773347e+01  0.00000000e+00   
9.10000000e+01 1.80716527e+02 0.00000000e+00 -2.14612448e+01  0.00000000e+00   -2.32570411e+01  0.00000000e+00   
9.10000000e+01 1.99722650e+02 0.00000000e+00 -2.15094530e+01  0.00000000e+00   -2.35762463e+01  0.00000000e+00   
9.10000000e+01 2.20727665e+02 0.00000000e+00 -2.10079334e+01  0.00000000e+00   -2.32041909e+01  0.00000000e+00   
9.10000000e+01 2.43941796e+02 0.00000000e+00 -2.04241593e+01  0.00000000e+00   -2.27496007e+01  0.00000000e+00   
9.10000000e+01 2.69597378e+02 0.00000000e+00 -1.94691962e+01  0.00000000e+00   -2.18023337e+01  0.00000000e+00   
9.10000000e+01 2.97951182e+02 0.00000000e+00 -1.85600019e+01  0.00000000e+00   -2.08970978e+01  0.00000000e+00   
9.10000000e+01 3.29286982e+02 0.00000000e+00 -1.73367790e+01  0.00000000e+00   -1.95994545e+01  0.00000000e+00   
9.10000000e+01 3.63918396e+02 0.00000000e+00 -1.63257262e+01  0.00000000e+00   -1.85407909e+01  0.00000000e+00   
9.10000000e+01 4.02192028e+02 0.00000000e+00 -1.49889212e+01  0.00000000e+00   -1.70681578e+01  0.00000000e+00   
9.10000000e+01 4.44490932e+02 0.00000000e+00 -1.39857059e+01  0.00000000e+00   -1.59898669e+01  0.00000000e+00   
9.10000000e+01 4.91238452e+02 0.00000000e+00 -1.27042222e+01  0.00000000e+00   -1.45541371e+01  0.00000000e+00   
9.10000000e+01 5.42902451e+02 0.00000000e+00 -1.16826542e+01  0.00000000e+00   -1.34255091e+01  0.00000000e+00   
9.10000000e+01 6.00000000e+02 0.00000000e+00 -1.06245537e+01  0.00000000e+00   -1.22386754e+01  0.00000000e+00   
