Process:            DrellYan
PDF:                MSTW2008nnlo68cl
iSet:               0
ECM:                8000.00000
GridType:           Asymptotic
Asymptotic Order:   3
muR, muF:           1.00000, 1.00000
Q Min/Max:          91.18000, 91.18000
Qt Min/Max:         4.00000, 4.00000
y Min/Max:          0.00000, 0.00000
----------------------------------
Q                Qt               y                Asym0            Asym1            Asym2            Asym3            
9.11800000e+01   3.27492301e+00   0.00000000e+00   1.96118227e+03   0.00000000e+00   2.17358753e+03   -2.51856523e-13  
9.11800000e+01   3.61934967e+00   0.00000000e+00   1.98822986e+03   0.00000000e+00   2.23150835e+03   -2.27889206e-13  
9.11800000e+01   4.00000000e+00   0.00000000e+00   1.97339326e+03   0.00000000e+00   2.23651646e+03   0.00000000e+00   
